{
    "KPackageStructure": "Plasma/Wallpaper",
    "KPlugin": {
        "Authors": [
            {
                "Email": "notmart@gmail.com",
                "Name": "Marco Martin",
                "Name[ar]": "Marco Martin",
                "Name[az]": "Marco Martin",
                "Name[ca@valencia]": "Marco Martin",
                "Name[ca]": "Marco Martin",
                "Name[cs]": "Marco Martin",
                "Name[de]": "Marco Martin",
                "Name[en_GB]": "Marco Martin",
                "Name[es]": "Marco Martin",
                "Name[eu]": "Marco Martin",
                "Name[fi]": "Marco Martin",
                "Name[fr]": "Marco Martin",
                "Name[hu]": "Marco Martin",
                "Name[ia]": "Marco Martin",
                "Name[id]": "Marco Martin",
                "Name[it]": "Marco Martin",
                "Name[ka]": "მაკრო მარტინი",
                "Name[ko]": "Marco Martin",
                "Name[lt]": "Marco Martin",
                "Name[nl]": "Marco Martin",
                "Name[nn]": "Marco Martin",
                "Name[pa]": "ਮਾਰਕੋ ਮਾਰਟਿਨ",
                "Name[pl]": "Marco Martin",
                "Name[pt]": "Marco Martin",
                "Name[pt_BR]": "Marco Martin",
                "Name[ro]": "Marco Martin",
                "Name[ru]": "Marco Martin",
                "Name[sk]": "Marco Martin",
                "Name[sl]": "Marco Martin",
                "Name[sv]": "Marco Martin",
                "Name[ta]": "மார்க்கோ மார்ட்டின்",
                "Name[tr]": "Marco Martin",
                "Name[uk]": "Marco Martin",
                "Name[vi]": "Marco Martin",
                "Name[x-test]": "xxMarco Martinxx",
                "Name[zh_CN]": "Marco Martin"
            }
        ],
        "Name": "Wallpaper",
        "Name[ar]": "الخلفية",
        "Name[ast]": "Fondu de pantalla",
        "Name[az]": "Divar Kağızı",
        "Name[bs]": "Pozadina",
        "Name[ca@valencia]": "Fons de pantalla",
        "Name[ca]": "Fons de pantalla",
        "Name[cs]": "Tapeta",
        "Name[da]": "Baggrundsbillede",
        "Name[de]": "Hintergrundbild",
        "Name[el]": "Ταπετσαρία",
        "Name[en_GB]": "Wallpaper",
        "Name[es]": "Fondo del escritorio",
        "Name[et]": "Taustapilt",
        "Name[eu]": "Horma-papera",
        "Name[fi]": "Tausta",
        "Name[fr]": "Fond d'écran",
        "Name[gl]": "Fondo de escritorio",
        "Name[he]": "טפט",
        "Name[hi]": "वाॅलपेपर",
        "Name[hsb]": "Pozadk dźěłoweho powjercha",
        "Name[hu]": "Háttérkép",
        "Name[ia]": "Tapete de papiro",
        "Name[id]": "Wallpaper",
        "Name[is]": "Bakgrunnsmynd",
        "Name[it]": "Sfondo",
        "Name[ja]": "壁紙",
        "Name[ka]": "ფონური სურათი",
        "Name[ko]": "배경 그림",
        "Name[lt]": "Darbalaukio fonas",
        "Name[lv]": "Tapete",
        "Name[ml]": "പശ്ചാത്തലചിത്രം",
        "Name[nb]": "Tapet",
        "Name[nds]": "Achtergrundbild",
        "Name[nl]": "Achtergrondafbeelding",
        "Name[nn]": "Bakgrunnsbilete",
        "Name[pa]": "ਵਾਲਪੇਪਰ",
        "Name[pl]": "Tapeta",
        "Name[pt]": "Papel de Parede",
        "Name[pt_BR]": "Papel de parede",
        "Name[ro]": "Tapet",
        "Name[ru]": "Обои",
        "Name[sk]": "Tapeta",
        "Name[sl]": "Slika ozadja",
        "Name[sr@ijekavian]": "Тапет",
        "Name[sr@ijekavianlatin]": "Tapet",
        "Name[sr@latin]": "Tapet",
        "Name[sr]": "Тапет",
        "Name[sv]": "Skrivbordsunderlägg",
        "Name[ta]": "பின்னணிப் படம்",
        "Name[tr]": "Duvar Kağıdı",
        "Name[uk]": "Зображення тла",
        "Name[vi]": "Phông nền",
        "Name[x-test]": "xxWallpaperxx",
        "Name[zh_CN]": "壁纸",
        "Name[zh_TW]": "桌布",
        "Version": "1"
    },
    "X-KDE-ParentApp": "org.kde.plasmashell"
}
